{
  "logger": {
    "path": "/var/logs",
    "filename": "access.log",
    "level": "info",
    "rotation": "20 days",
    "retention": "1 months",
    "format": "<level>{level: <8}</level> <green>{time:YYYY-MM-DD HH:mm:ss.SSS}</green> request id: {extra[request_id]} - <cyan>{name}</cyan>:<cyan>{function}</cyan> - <level>{message}</level>"
  }
}
